<?xml version="1.0" encoding="UTF-8"?>
<svg width="61px" height="60px" viewBox="0 0 61 60" version="1.1" xmlns="http://www.w3.org/2000/svg" xmlns:xlink="http://www.w3.org/1999/xlink">
    <!-- Generator: Sketch 52.5 (67469) - http://www.bohemiancoding.com/sketch -->
    <title>Combined Shape</title>
    <desc>Created with Sketch.</desc>
    <g id="Page-1" stroke="none" stroke-width="1" fill="none" fill-rule="evenodd">
        <g id="BodyShop" transform="translate(-38.000000, 0.000000)" fill="#ffffff">
            <path d="M97.8092308,20.7253924 C98.8507051,24.1378283 99.1984615,27.6473796 98.9678846,31.206995 C98.4704487,38.8872514 95.4980769,45.4734694 90.0941026,50.9359053 C86.2748077,54.7964181 81.7038462,57.4139181 76.4578846,58.8328283 C73.2469231,59.7012899 69.9782692,60.0199437 66.6566667,59.816354 C62.2117308,59.5439822 58.0204487,58.3704565 54.1055769,56.2527642 C48.72,53.339495 44.5664744,49.1789181 41.6475,43.7950719 C39.8685256,40.5137258 38.7564744,37.0118027 38.2816026,33.3124437 C38.1567308,32.3396873 38.1252564,31.3548796 38.0488462,30.3758412 C38.0389744,30.2494309 38.0165385,30.1239822 38,29.9980847 L38,28.7160335 C38.039359,28.1532771 38.0757692,27.5902642 38.1186538,27.0277642 C38.6237179,20.4105206 40.9916667,14.5485976 45.3078846,9.50353347 C48.8817308,5.32622577 53.2923077,2.33520013 58.4577564,0.460841158 C59.2211538,0.183853979 60.0098718,-0.00973576494 60.8341667,0.000392440188 C61.9145513,0.0135975684 62.7382692,0.57064885 63.0030128,1.47231552 C63.295641,2.46904629 62.9460256,3.53334116 62.031859,4.05866167 C61.194359,4.53981552 60.3074359,4.94776424 59.4114103,5.3119309 C56.1314744,6.64507193 53.0894872,8.36167449 50.4569872,10.7537258 C46.2110897,14.6116745 43.4139103,19.3265463 42.2294872,24.9453283 C40.8229487,31.6177001 41.7840385,37.9666745 45.1261538,43.9137899 C47.6794872,48.4575078 51.2965385,51.9495591 55.8892308,54.4222514 C58.7473718,55.9610976 61.7926282,56.929495 65.0073077,57.3530206 C67.2186538,57.6443668 69.4341667,57.6546873 71.6537179,57.3958412 C75.9869231,56.8903924 79.9709615,55.4310335 83.5657692,52.9719309 C88.8876923,49.3312258 92.4926282,44.4077001 94.3451282,38.2243027 C95.3626923,34.8279565 95.6992949,31.350713 95.293141,27.8314181 C94.3429487,19.5992386 90.4051282,13.1385335 83.6055128,8.42000782 C81.5157051,6.96981552 79.2036538,5.94641808 76.8597436,4.98648218 C76.2211538,4.72494372 75.595,4.41327706 75.0062821,4.05404629 C74.134359,3.52205911 73.7749359,2.50052065 74.0376923,1.51481552 C74.2746154,0.626033466 75.1083333,0.0284052607 76.1458974,0.00173859403 C77.148141,-0.0239665342 78.0979487,0.23814885 79.0098077,0.603405261 C88.418141,4.37173859 94.8286538,10.9594309 97.8092308,20.7253924 Z M59.1099038,13.5845014 C57.749391,14.2947578 56.3552885,14.9573219 55.0622115,15.7770655 C49.9350962,19.0275783 46.6852885,23.6753347 45.0471474,29.4876424 C44.9516987,29.8262963 44.8790705,30.1745014 44.7460577,30.4978989 C44.6900962,30.6340527 44.5050321,30.7170655 44.3785577,30.824245 C44.3018269,30.6900142 44.1859936,30.5633476 44.1578526,30.4195014 C44.1195192,30.2241168 44.1483013,30.0155912 44.1483013,29.8266809 C44.2947115,25.8614245 45.3849038,22.1828347 47.3775962,18.7775142 C49.6649038,14.8687963 52.755609,11.7647578 56.7422756,9.58103988 C57.3184936,9.26539885 57.9274679,9.0390527 58.5968269,9.04052706 C60.3166987,9.044245 61.3311859,10.697963 60.5609295,12.2398219 C60.2465064,12.869245 59.7236859,13.2640527 59.1099038,13.5845014 Z M92.2940321,30.4787771 C92.05525,29.6711489 91.8419808,28.8546745 91.5692244,28.0585847 C89.6390321,22.4244181 86.1161474,18.0891617 80.9392244,15.1263412 C79.9315962,14.5496745 78.87525,14.0582001 77.8425577,13.5252514 C76.8574936,13.0169181 76.2314038,12.2640335 76.2607628,11.1015976 C76.2949295,9.75050782 77.4556987,8.82095654 78.8353141,9.07781552 C79.3505705,9.17371295 79.8728782,9.35371295 80.3329423,9.60390526 C84.3065962,11.7644822 87.3724295,14.864354 89.6610192,18.7457642 C91.26775,21.4708924 92.2832628,24.4073027 92.7201218,27.5415335 C92.7687756,27.8900591 92.7971731,28.2417258 92.827109,28.5925591 C92.857109,28.9434565 92.8773654,29.2951873 92.9018526,29.6465976 C92.9080705,29.6466617 92.9143526,29.6467258 92.9205705,29.6467899 C92.9205705,29.8923027 92.9487756,30.1422386 92.9105064,30.3815976 C92.8856987,30.5367258 92.7945449,30.7636489 92.6790321,30.8042258 C92.4592244,30.8813412 92.3530064,30.678136 92.2940321,30.4787771 Z M65.1061538,29.7117065 C63.9112821,29.2928604 62.7732051,29.4553604 61.8328846,30.3553604 C60.9466667,31.2035014 60.7350641,32.2870912 60.9533333,33.4535014 C61.4755769,36.243886 64.3225,36.533245 65.7603205,35.4999117 C66.6838462,34.8360655 67.0352564,33.8785655 67.0783333,32.7033091 C67.0712821,32.6080527 67.0667308,32.4367065 67.0447436,32.2676681 C66.8857051,31.0468347 66.2907692,30.126963 65.1061538,29.7117065 Z M59.6771795,30.8277322 C60.3612179,29.1780527 61.7076282,28.3621553 63.4612179,28.1936937 C64.6999359,28.0747194 65.8776282,28.2785014 66.9016026,29.013245 C68.355641,30.0565783 68.8375641,31.5604886 68.6626923,33.2629245 C68.4000641,35.8203604 66.5827564,37.3789501 63.4321154,37.3791424 C62.4937179,37.3683732 61.1628205,36.9448476 60.2253205,35.7310014 C59.0626282,34.2256168 58.97,32.5331809 59.6771795,30.8277322 Z M72.2882756,29.7124886 L72.2882756,35.8276168 C73.29475,35.8353091 74.2895577,35.9217194 75.2430833,35.5565912 C76.1171859,35.2219758 76.7687885,34.6561424 77.0126346,33.7191553 C77.2021218,32.9906937 77.17975,32.2590912 76.9403269,31.5413989 C76.7579551,30.9947963 76.4150064,30.570245 75.9325064,30.2569758 C74.7996859,29.5215271 73.5345577,29.7581296 72.2882756,29.7124886 Z M70.7226346,28.4067835 C70.7869295,28.3906937 70.8461603,28.3626168 70.9052628,28.3631296 C72.1649423,28.3728732 73.4268013,28.3428091 74.6837244,28.4078732 C76.7035321,28.5124886 78.1505833,29.7283219 78.5887244,31.6035142 C79.0601346,33.6210142 78.28475,35.5351168 76.5936603,36.5208219 C75.9745577,36.8817194 75.2962885,37.1025527 74.5899423,37.1248604 C73.3125705,37.165245 72.0329551,37.1362706 70.7226346,37.1362706 L70.7226346,28.4067835 Z M52.6878205,35.9026745 C53.1795513,35.9026745 53.6460897,35.906136 54.1125,35.9012001 C54.3359615,35.8987642 54.5612179,35.8949822 54.7819231,35.8647899 C54.9808333,35.8376104 55.1812821,35.7917771 55.3694231,35.7225463 C56.001859,35.4902386 56.2707692,35.0397258 56.2085897,34.3488283 C56.1589744,33.7972899 55.7882692,33.4427386 55.1432051,33.336136 C55.0066667,33.3135719 54.8678205,33.2940206 54.7298718,33.2931232 C54.0524359,33.2887642 53.375,33.291136 52.6878205,33.291136 L52.6878205,35.9026745 Z M52.6910897,29.6379309 L52.6910897,31.9896617 C53.2803846,31.9896617 53.8346154,32.0007514 54.3880128,31.9840206 C54.5972436,31.9777386 54.8124359,31.9300463 55.0112179,31.8615206 C55.4896795,31.6965847 55.7464744,31.3159437 55.75,30.8137642 C55.7536538,30.3020335 55.5136538,29.9375463 55.0055769,29.7812001 C54.2487179,29.5483155 53.4699359,29.6672899 52.6910897,29.6379309 Z M54.9016667,37.1569694 C53.6859615,37.185495 52.4691026,37.1654309 51.2260256,37.1654309 L51.2260256,28.4049822 C51.2425641,28.3947899 51.2607692,28.3738924 51.2785256,28.3742771 C52.6639744,28.4027386 54.0589744,28.3433796 55.4319872,28.4899822 C56.6364744,28.6185719 57.3083333,29.4879309 57.2902564,30.5702386 C57.2765385,31.3938924 56.8815385,31.9868412 56.1505769,32.3583155 C56.038141,32.4154309 55.9192308,32.4599181 55.7644231,32.5270976 C56.0240385,32.6081873 56.2457051,32.6551745 56.4485256,32.7447899 C57.2217949,33.0866489 57.6409615,33.6856232 57.6914744,34.5324181 C57.7464103,35.452995 57.4098718,36.1799822 56.6063462,36.662354 C56.0830128,36.9764565 55.501859,37.1429309 54.9016667,37.1569694 Z M71.9981538,46.4739053 C74.026359,47.3273668 76.0770641,45.9089694 76.0832179,43.6675591 C76.0887949,41.6132001 74.2923846,40.2244181 72.3314231,40.7671104 C70.9692436,41.1440335 70.1027051,42.5916617 70.3287308,44.1098668 C70.4878974,45.1792258 70.9648846,46.0390976 71.9981538,46.4739053 Z M73.2130256,39.3032001 C75.8631538,39.313713 77.6402692,41.0957001 77.6302692,43.7326232 C77.6206538,46.2785206 75.7560385,48.0703796 73.1257821,48.0613412 C70.527,48.0523668 68.7467436,46.2728155 68.7557179,43.6930078 C68.7649487,41.066213 70.5657821,39.2926232 73.2130256,39.3032001 Z M67.1272051,47.8340783 L65.6605385,47.8340783 L65.6605385,44.200104 L61.7774615,44.200104 L61.7774615,46.0218347 L61.7774615,47.8358732 L60.3170128,47.8358732 L60.3170128,39.5218989 L61.7709231,39.5218989 L61.7709231,42.8161296 L65.6581026,42.8161296 L65.6581026,39.5178604 L67.1272051,39.5178604 L67.1272051,47.8340783 Z M83.0255769,43.1907771 C83.5039744,42.9469309 83.7485897,42.4309053 83.6782051,41.8723155 C83.6077564,41.3136617 83.3272436,40.919495 82.8171154,40.8519309 C82.1683333,40.7659694 81.5076282,40.7697514 80.834359,40.7339822 L80.834359,43.3802642 C81.3898077,43.3802642 81.9213462,43.3964822 82.4510897,43.3718027 C82.6457051,43.3627642 82.8480769,43.2812258 83.0255769,43.1907771 Z M82.7862821,39.5659053 C83.7534615,39.6335976 84.5933333,40.0241104 85.0170513,40.9871873 C85.6733333,42.4787899 84.9342308,44.0310335 83.3653205,44.4212258 C82.8937821,44.5384694 82.3973718,44.5666104 81.9100641,44.6054565 C81.5620513,44.6332771 81.2101282,44.6108412 80.8195513,44.6108412 L80.8195513,47.8259053 L79.3642308,47.8259053 L79.3642308,39.5450078 C79.3902564,39.5293027 79.4080769,39.5090463 79.4257051,39.5092386 C80.5462179,39.5221873 81.6701282,39.4877642 82.7862821,39.5659053 Z M53.3656859,47.5770463 C53.2011987,47.5041617 53.1253013,47.402495 53.1330577,47.2098668 C53.1490192,46.8157642 53.1378654,46.420636 53.1378654,45.9583283 C53.7954295,46.3883924 54.4513269,46.6702514 55.1798526,46.6913412 C55.5347244,46.7015976 55.9047885,46.6537771 56.2460705,46.5558924 C56.7040833,46.4246104 56.9828654,46.0819822 57.01575,45.5955719 C57.0470321,45.1340976 56.7835064,44.8172386 56.3918397,44.6376232 C55.8892756,44.4071104 55.3645321,44.2253155 54.850109,44.0205078 C54.6918397,43.957495 54.5344038,43.8917899 54.3795321,43.8208283 C53.5958782,43.4617899 53.0724167,42.898713 53.0153654,42.0019822 C52.9581218,41.1028155 53.3328654,40.3819822 54.0729936,39.9055078 C55.2536346,39.1455719 56.5194038,39.2130078 57.7918397,39.6664694 C57.8540833,39.6886489 57.9186346,39.8040335 57.9210064,39.8780719 C57.9337628,40.271854 57.9270321,40.6662771 57.9270321,41.0382642 C57.3834423,40.9328155 56.8570321,40.8122386 56.3244679,40.7328796 C55.8615833,40.6639694 55.4065833,40.7342899 54.992609,40.9702514 C54.3445962,41.3396104 54.2988269,42.0785206 54.9379295,42.4590335 C55.3725449,42.7177514 55.870109,42.8704437 56.3388269,43.0721745 C56.6322244,43.1984565 56.9322244,43.3126873 57.21575,43.4584565 C58.0994679,43.9129437 58.5503654,44.6458283 58.4977372,45.6387771 C58.4461987,46.6116617 57.9239551,47.3188412 57.053891,47.7064694 C55.8190192,48.2565335 54.5785705,48.1140976 53.3656859,47.5770463 Z M66.5399487,25.719386 L66.5399487,26.0838732 L65.2575769,26.0838732 L65.2575769,18.6695783 L66.5362308,18.6695783 L66.5362308,21.6134886 L70.0473846,21.6134886 L70.0473846,18.6701553 L71.3481538,18.6701553 L71.3481538,26.0882322 L70.0602692,26.0882322 L70.0602692,22.7785527 L69.7167436,22.7785527 C68.7770641,22.7785527 67.8372564,22.7879117 66.8978333,22.7726553 C66.625141,22.7682322 66.5259744,22.8311168 66.5328333,23.1247706 C66.5529615,23.9892578 66.5399487,24.8544501 66.5399487,25.719386 Z M78.4274423,24.8953155 L78.4274423,26.079354 L73.3463526,26.079354 L73.3463526,18.677495 L78.2121859,18.677495 L78.2121859,19.8571104 L74.6562244,19.8571104 L74.6562244,21.6946104 L78.0084679,21.6946104 L78.0084679,22.8507001 L77.6221218,22.8507001 C76.7252628,22.8507642 75.8282115,22.8585847 74.9314808,22.8457001 C74.68975,22.8422386 74.6180833,22.9194822 74.6242372,23.156213 C74.6389808,23.7199309 74.6290449,24.2842899 74.6290449,24.8953155 L78.4274423,24.8953155 Z M87.5182051,28.3601424 C87.4180769,28.5168732 87.3574359,28.6138604 87.2947436,28.7094373 C86.3410897,30.1639886 85.3810256,31.6143091 84.4408333,33.0775142 C84.3174359,33.2695014 84.2412179,33.5257194 84.2363462,33.7541809 C84.2146154,34.7680912 84.2269231,35.7827065 84.2269231,36.7970014 L84.2269231,37.160463 L82.6819231,37.160463 L82.6819231,36.8298219 C82.6819231,35.7834758 82.6900641,34.7370014 82.6744231,33.6909117 C82.6716026,33.5023219 82.6107051,33.2893732 82.5087821,33.1314886 C81.5538462,31.6524501 80.5839103,30.1830271 79.6189744,28.710463 C79.5560897,28.6145014 79.4980769,28.5152706 79.4030769,28.3612963 C80.0191667,28.3612963 80.5629487,28.3484758 81.105,28.3725783 C81.2076923,28.3771937 81.3316026,28.5105271 81.3985897,28.6147578 C82.0446795,29.619886 82.6805128,30.631745 83.32,31.6411681 C83.3807051,31.7370014 83.4463462,31.8297578 83.5305769,31.9551424 C84.2074359,30.8530912 84.8692308,29.7962963 85.5058333,28.7246296 C85.6662179,28.4546296 85.8336538,28.3272578 86.1596154,28.3520655 C86.5904487,28.384886 87.0257051,28.3601424 87.5182051,28.3601424 Z M58.094,19.8634501 L58.094,18.673963 L64.0022692,18.673963 L64.0022692,19.8574886 L61.7304744,19.8574886 L61.7304744,26.0828732 C61.6052821,26.0930655 61.5325897,26.1036424 61.4597692,26.1040912 C61.1299615,26.105886 60.8000897,26.1048604 60.4207949,26.1048604 L60.4207949,19.8634501 L58.094,19.8634501 Z M92.1832949,57.7078796 C92.2913718,57.2812771 92.2918846,57.2814694 92.7900256,57.3320463 L92.7900256,59.7853796 C92.5825256,59.8555719 92.4893205,59.8113412 92.4931026,59.5803796 C92.5024615,58.999354 92.4961795,58.4180719 92.4331667,57.8292899 C92.2854744,58.4021745 92.1455385,58.9773668 91.9830385,59.5460206 C91.953359,59.6499309 91.8318846,59.7276873 91.7527179,59.8174309 C91.684,59.7274309 91.5800897,59.6470463 91.552141,59.5457642 C91.3943205,58.9732001 91.2547692,58.395636 91.0381667,57.8252514 C91.0381667,58.3257642 91.0382308,58.826213 91.0381026,59.3267258 C91.0381026,59.4227514 91.0552821,59.5235847 91.0313077,59.6133924 C91.0116282,59.6869822 90.9424615,59.7473027 90.8952179,59.8136489 C90.8456026,59.7509565 90.7536795,59.6888412 90.7529103,59.6255719 C90.7428462,58.8690976 90.7464359,58.112495 90.7464359,57.3323027 L91.2550256,57.3323027 C91.4134231,57.9473668 91.574641,58.5727514 91.7357949,59.198136 C91.7551538,59.2010847 91.774641,59.2040335 91.7940641,59.2069822 C91.8702179,58.9245463 91.9481667,58.6425591 92.0219487,58.3594822 C92.0784231,58.1429437 92.1284231,57.9248027 92.1832949,57.7078796 Z M88.8882051,57.3243283 L90.4580128,57.3243283 C90.465641,57.510995 90.465641,57.510995 89.8511538,57.6061232 C89.8511538,58.2563796 89.8460256,58.9137514 89.8541667,59.570995 C89.8567949,59.7837514 89.7961538,59.8750335 89.5432051,59.7809309 L89.5432051,57.6472771 C89.3467308,57.452213 88.978141,57.7513796 88.8882051,57.3243283 Z" id="Combined-Shape"></path>
        </g>
    </g>
</svg>