<?xml version="1.0" encoding="UTF-8"?>
<svg width="116px" height="37px" viewBox="0 0 116 37" version="1.1" xmlns="http://www.w3.org/2000/svg" xmlns:xlink="http://www.w3.org/1999/xlink">
    <!-- Generator: Sketch 52.5 (67469) - http://www.bohemiancoding.com/sketch -->
    <title>Group</title>
    <desc>Created with Sketch.</desc>
    <g id="Page-1" stroke="none" stroke-width="1" fill="none" fill-rule="evenodd">
        <g id="HS-Home-1" transform="translate(-151.000000, -1568.000000)">
            <g id="Group-4" transform="translate(105.000000, 1362.000000)">
                <g id="Group-10">
                    <g id="Group-9" transform="translate(21.748882, 175.189258)">
                        <g id="Group" transform="translate(24.714638, 30.682864)">
                            <path d="M0,28.036716 L0,10.954296 L14.8213826,19.4470085 L14.8213826,36.433302 L0,28.036716 Z M17.6003919,19.4472015 L32.4217745,10.954296 L32.4217745,28.0368114 L17.6003919,36.433302 L17.6003919,19.4472015 Z M25.8634956,5.5730131 L31.4954381,8.81478356 L16.931275,17.4398612 L11.6861954,14.3368537 L16.1476447,11.5787216 L11.5446176,8.69547061 L6.92819014,11.5726254 L2.31584104,8.7663036 L16.9298185,0.299438984 L21.0568411,2.76698164 L16.844464,5.39215674 L21.5156582,8.2608928 L25.8634956,5.5730131 Z" id="Combined-Shape-Copy-4" fill="#C93143"></path>
                            <polygon id="Fill-4" fill="#000000" opacity="0.400000006" points="41.8218112 0.91458041 43.2620721 0.91458041 43.2620721 3.58966261 45.4665479 3.58966261 45.4665479 0.91458041 46.9166615 0.91458041 46.9166615 7.86340023 45.4665479 7.86340023 45.4665479 4.96453192 43.2620721 4.96453192 43.2620721 7.86340023 41.8218112 7.86340023"></polygon>
                            <path d="M49.866857,5.39085225 L47.8429979,0.91458041 L49.466147,0.91458041 L50.0620905,2.51323584 C50.2469928,3.0354645 50.4216522,3.51500617 50.6065545,4.04795238 L50.6477027,4.04795238 C50.842848,3.51500617 51.0277503,3.0354645 51.2127409,2.51323584 L51.818839,0.91458041 L53.4010164,0.91458041 L51.3771574,5.39085225 L51.3771574,7.86340023 L49.866857,7.86340023 L49.866857,5.39085225 Z" id="Fill-5" fill="#000000" opacity="0.400000006"></path>
                            <path d="M56.6939356,4.26111254 C57.5309975,4.26111254 57.9340734,3.87747921 57.9340734,3.15262473 C57.9340734,2.42795345 57.4999985,2.16148035 56.6939356,2.16148035 L55.8464815,2.16148035 L55.8464815,4.26111254 L56.6939356,4.26111254 Z M54.3273528,0.91458041 L56.7869326,0.91458041 C58.2440634,0.91458041 59.4222031,1.46877852 59.4222031,3.15262473 C59.4222031,4.7833412 58.2130644,5.50801248 56.7869326,5.50801248 L55.8464815,5.50801248 L55.8464815,7.86340023 L54.3273528,7.86340023 L54.3273528,0.91458041 Z" id="Fill-7" fill="#000000" opacity="0.400000006"></path>
                            <path d="M63.1173278,4.98578382 L62.9629588,4.34639493 C62.7776276,3.65360149 62.5922963,2.83293028 62.4174038,2.10816741 L62.3762682,2.10816741 C62.211549,2.84355623 62.036568,3.65360149 61.8512367,4.34639493 L61.6866059,4.98578382 L63.1173278,4.98578382 Z M63.4260658,6.21143186 L61.377868,6.21143186 L60.9661584,7.86340023 L59.4222031,7.86340023 L61.5219752,0.91458041 L63.3437946,0.91458041 L65.4433898,7.86340023 L63.8377754,7.86340023 L63.4260658,6.21143186 Z" id="Fill-9" fill="#000000" opacity="0.400000006"></path>
                            <path d="M66.7853277,5.85891428 C67.277,6.27009542 67.9047183,6.55793988 68.4695839,6.55793988 C69.1078227,6.55793988 69.4216369,6.31117819 69.4216369,5.91033401 C69.4216369,5.48890427 69.0346293,5.355319 68.4382924,5.10855731 L67.5490023,4.73845894 C66.8480906,4.46095144 66.1785603,3.88535086 66.1785603,2.9087294 C66.1785603,1.79861102 67.1828557,0.91458041 68.60563,0.91458041 C69.3903454,0.91458041 70.2167828,1.22292209 70.8026892,1.79861102 L70.0179738,2.75455856 C69.5681135,2.41529437 69.1497245,2.22004076 68.60563,2.22004076 C68.0721459,2.22004076 67.7373807,2.44621689 67.7373807,2.82656385 C67.7373807,3.23774499 68.187241,3.38166722 68.7729676,3.61809195 L69.6518273,3.96760475 C70.4782647,4.29644364 71.0014083,4.8412984 71.0014083,5.78699734 C71.0014083,6.89711573 70.0598757,7.86340023 68.4278619,7.86340023 C67.5385718,7.86340023 66.5969493,7.53447299 65.906558,6.89711573 L66.7853277,5.85891428 Z" id="Fill-11" fill="#000000" opacity="0.400000006"></path>
                            <polygon id="Fill-13" fill="#000000" opacity="0.400000006" points="72.3909129 0.91458041 73.9621066 0.91458041 73.9621066 3.58966261 76.3669893 3.58966261 76.3669893 0.91458041 77.9489314 0.91458041 77.9489314 7.86340023 76.3669893 7.86340023 76.3669893 4.96453192 73.9621066 4.96453192 73.9621066 7.86340023 72.3909129 7.86340023"></polygon>
                            <polygon id="Fill-15" fill="#000000" opacity="0.400000006" points="79.338436 7.86340023 81.1911088 7.86340023 81.1911088 0.91458041 79.338436 0.91458041"></polygon>
                            <path d="M84.9471963,4.26111254 C85.7842581,4.26111254 86.187334,3.87747921 86.187334,3.15262473 C86.187334,2.42795345 85.7532591,2.16148035 84.9471963,2.16148035 L84.099831,2.16148035 L84.099831,4.26111254 L84.9471963,4.26111254 Z M82.5806134,0.91458041 L85.0401933,0.91458041 C86.497324,0.91458041 87.6754637,1.46877852 87.6754637,3.15262473 C87.6754637,4.7833412 86.4664138,5.50801248 85.0401933,5.50801248 L84.099831,5.50801248 L84.099831,7.86340023 L82.5806134,7.86340023 L82.5806134,0.91458041 Z" id="Fill-17" fill="#000000" opacity="0.400000006"></path>
                            <path d="M46.409619,26.7391288 L46.409619,34.7302716 L41.8218112,34.7302716 L41.8218112,12.0054593 L49.5617862,12.0054593 C51.8088869,12.0054593 53.6008188,12.7025963 54.9376357,14.0968912 C56.2744526,15.4911861 56.942851,17.3016613 56.942851,19.5283711 C56.942851,21.7550808 56.2822549,23.5135309 54.9610429,24.8037739 C53.6398309,26.094017 51.8088874,26.7391288 49.4681575,26.7391288 L46.409619,26.7391288 Z M46.409619,22.9152421 L49.5617862,22.9152421 C50.4356587,22.9152421 51.1118594,22.6291038 51.5904086,22.0568186 C52.0689579,21.4845334 52.3082289,20.652131 52.3082289,19.5595865 C52.3082289,18.4254212 52.0637563,17.5227849 51.5748039,16.8516504 C51.0858514,16.1805159 50.4304568,15.8397512 49.6086005,15.829346 L46.409619,15.829346 L46.409619,22.9152421 Z M58.2313995,25.740236 C58.2313995,23.1805602 58.8347786,21.1723895 60.0415549,19.7156635 C61.2483312,18.2589375 62.9180269,17.5305854 65.0506919,17.5305854 C67.2041635,17.5305854 68.8842622,18.2589375 70.0910385,19.7156635 C71.2978148,21.1723895 71.9011939,23.1909653 71.9011939,25.7714514 L71.9011939,26.8483827 C71.9011939,29.4184636 71.3030164,31.4266344 70.1066433,32.8729552 C68.9102702,34.3192761 67.235373,35.0424256 65.0819015,35.0424256 C62.9180267,35.0424256 61.2353272,34.3166748 60.0337525,32.8651514 C58.8321778,31.4136279 58.2313995,29.3976534 58.2313995,26.8171673 L58.2313995,25.740236 Z M62.6631593,26.8483827 C62.6631593,29.8658866 63.4693986,31.3746159 65.0819015,31.3746159 C66.5695654,31.3746159 67.3706032,30.1156073 67.4850389,27.5975524 L67.5006437,25.740236 C67.5006437,24.2002685 67.2873804,23.0583164 66.8608473,22.3143457 C66.4343143,21.5703749 65.8309352,21.198395 65.0506919,21.198395 C64.3016583,21.198395 63.7164846,21.5703749 63.2951532,22.3143457 C62.8738218,23.0583164 62.6631593,24.2002685 62.6631593,25.740236 L62.6631593,26.8483827 Z M81.2886275,30.2040384 C81.2886275,29.8294517 81.1091742,29.4834845 80.7502623,29.1661263 C80.3913504,28.8487681 79.5929134,28.4195606 78.3549273,27.878491 C76.5343596,27.1397228 75.2833882,26.3749531 74.6019757,25.584159 C73.9205632,24.7933648 73.5798621,23.8100895 73.5798621,22.6343035 C73.5798621,21.1567671 74.1130204,19.9367774 75.1793529,18.9742977 C76.2456854,18.011818 77.6579046,17.5305854 79.4160529,17.5305854 C81.2678304,17.5305854 82.7502704,18.0092167 83.8634175,18.9664938 C84.9765647,19.9237709 85.5331299,21.2087921 85.5331299,22.8215959 L81.1169748,22.8215959 C81.1169748,21.4481114 80.544805,20.7613794 79.4004481,20.7613794 C78.9323021,20.7613794 78.5473879,20.9070498 78.2456938,21.198395 C77.9439997,21.4897403 77.7931549,21.8955364 77.7931549,22.4157957 C77.7931549,22.7903824 77.9596043,23.1207421 78.2925081,23.4068847 C78.625412,23.6930273 79.4108451,24.1014247 80.6488312,24.6320892 C82.4485924,25.2980211 83.7203699,26.0393795 84.4642019,26.8561866 C85.2080338,27.6729937 85.5799442,28.7317054 85.5799442,30.0323537 C85.5799442,31.5411056 85.0129759,32.7532916 83.8790223,33.668948 C82.7450687,34.5846043 81.2574271,35.0424256 79.4160529,35.0424256 C78.1780668,35.0424256 77.0857426,34.8005087 76.1390474,34.3166675 C75.1923521,33.8328264 74.4511321,33.1591007 73.915365,32.2954703 C73.379598,31.4318399 73.1117185,30.5005897 73.1117185,29.5016919 L77.3094065,29.5016919 C77.330213,30.2716756 77.5096662,30.8491548 77.8477717,31.2341466 C78.1858771,31.6191385 78.7398416,31.8116316 79.5096816,31.8116316 C80.6956515,31.8116316 81.2886275,31.2757725 81.2886275,30.2040384 Z M92.6266595,13.691091 L92.6266595,17.8427394 L94.8893538,17.8427394 L94.8893538,21.1671796 L92.6266595,21.1671796 L92.6266595,29.548515 C92.6266595,30.2144469 92.7176866,30.6722682 92.8997433,30.9219926 C93.0818001,31.1717171 93.4329043,31.2965774 93.9530665,31.2965774 C94.3795996,31.2965774 94.728103,31.2601598 94.9985874,31.1873235 L94.9673778,34.6210177 C94.2183442,34.9019577 93.4069033,35.0424256 92.5330308,35.0424256 C89.6825419,35.0424256 88.2417142,33.408836 88.2105045,30.1416076 L88.2105045,21.1671796 L86.259906,21.1671796 L86.259906,17.8427394 L88.2105045,17.8427394 L88.2105045,13.691091 L92.6266595,13.691091 Z M104.495254,34.7302716 C104.370415,34.470142 104.245578,34.0331307 104.120739,33.4192247 C103.330093,34.5013641 102.258575,35.0424256 100.906153,35.0424256 C99.4913119,35.0424256 98.3183637,34.5741993 97.3872734,33.6377326 C96.456183,32.7012658 95.9906448,31.4890799 95.9906448,30.0011383 C95.9906448,28.2322567 96.5550124,26.8639953 97.6837644,25.896313 C98.8125163,24.9286307 100.437999,24.4343918 102.560261,24.4135814 L103.902272,24.4135814 L103.902272,23.0557114 C103.902272,22.2961329 103.772234,21.7602738 103.512153,21.4481183 C103.252072,21.1359627 102.872359,20.9798872 102.373003,20.9798872 C101.270259,20.9798872 100.718896,21.6249991 100.718896,22.9152421 L96.3027406,22.9152421 C96.3027406,21.3544643 96.8879143,20.0668418 98.0582793,19.0523362 C99.2286442,18.0378306 100.708484,17.5305854 102.497842,17.5305854 C104.349619,17.5305854 105.782644,18.011818 106.796961,18.9742977 C107.811277,19.9367774 108.318428,21.3128426 108.318428,23.1025345 L108.318428,31.0468542 C108.339234,32.5035803 108.547296,33.642931 108.942619,34.4649407 L108.942619,34.7302716 L104.495254,34.7302716 Z M101.889255,31.5775161 C102.378207,31.5775161 102.794331,31.4786683 103.137638,31.2809697 C103.480945,31.0832712 103.735821,30.849158 103.902272,30.5786232 L103.902272,27.0668905 L102.841147,27.0668905 C102.092113,27.0668905 101.501738,27.3062062 101.070003,27.7848448 C100.638269,28.2634833 100.422405,28.9033927 100.422405,29.704592 C100.422405,30.9532143 100.91135,31.5775161 101.889255,31.5775161 Z M115.318328,34.7302716 L110.886569,34.7302716 L110.886569,10.7568432 L115.318328,10.7568432 L115.318328,34.7302716 Z" id="Postal-Copy" fill="#C93143"></path>
                        </g>
                    </g>
                </g>
            </g>
        </g>
    </g>
</svg>