<?xml version="1.0" encoding="UTF-8"?>
<svg width="26px" height="30px" viewBox="0 0 26 30" version="1.1" xmlns="http://www.w3.org/2000/svg" xmlns:xlink="http://www.w3.org/1999/xlink">
    <!-- Generator: Sketch 52.5 (67469) - http://www.bohemiancoding.com/sketch -->
    <title>Group 6</title>
    <desc>Created with Sketch.</desc>
    <g id="Page-1" stroke="none" stroke-width="1" fill="none" fill-rule="evenodd">
        <g id="HS-Postal" transform="translate(-105.000000, -706.000000)" fill="#ffffff">
            <g id="Group-17" transform="translate(104.000000, 634.000000)">
                <g id="Group-7" transform="translate(1.000000, 72.000000)">
                    <g id="Group-6">
                        <polygon id="Fill-15" points="0 23.1343892 11.6666667 30 11.6666667 16.1108388 0 9.16666667"></polygon>
                        <polygon id="Fill-16" points="20.3355198 4.35861441 16.734629 6.58017279 12.8659643 4.20915261 16.3546685 2.03947922 12.936661 0 0.833333333 6.99786761 4.65327468 9.31741568 8.47662802 6.93937657 12.2889265 9.32237021 8.59386442 11.6020067 12.9378893 14.1666667 25 7.03805439"></polygon>
                        <polygon id="Fill-17" points="14.1666667 30 25.8333333 23.1344341 25.8333333 9.16666667 14.1666667 16.1110657"></polygon>
                    </g>
                </g>
            </g>
        </g>
    </g>
</svg>